module zidan/trevor-ws

go 1.22.0

require (
	github.com/CloudyKit/fastprinter v0.0.0-20200109182630-33d98a066a53 // indirect
	github.com/CloudyKit/jet v2.1.2+incompatible // indirect
	github.com/CloudyKit/jet/v6 v6.2.0 // indirect
	github.com/bmizerany/pat v0.0.0-20210406213842-e4b6760bdd6f // indirect
	github.com/gorilla/websocket v1.5.3 // indirect
)
